{
  "packages":[
    {
      "name":"odb",
      "maintainer":"One Dollar Board Team",
      "websiteURL":"https://www.indiegogo.com/projects/one-dollar-board-arduino#/",
      "email":"",
      "help":{
        "online":""
      },
      "platforms":[
        {
          "name": "One Dollar Board Team",
          "architecture": "avr",
          "version": "1.0.0",
          "category": "Contributed",
          "url": "https://bitbucket.org/augustold/odb_arduino/raw/cd56bc26500bae5f922a6c67de31c0e51d1aea83/onedollarboard-avr-1.0.0.zip",
          "archiveFileName": "onedollarboard-avr-1.0.0.zip",
          "checksum": "SHA-256:758D1EEA4433F6DEE9150B68D59EB4FAA300A24977F79937AC6CBD3D8A9C2E6E",
          "size": "135204",
          "help": {
            "online": ""
          },
          "boards": [
            {
              "name": "One Dollar Board"
            }
          ],
          "toolsDependencies": [
            {
              "packager": "odb",
              "name": "micronucleus",
              "version": "2.0a5"
            }
          ]
        }
      ],
      "tools":[
        {
          "name": "micronucleus",
          "version": "2.0a5",
          "systems": [
            {
              "host": "x86_64-linux-gnu",
              "archiveFileName": "micronucleus-2.0a5-linux64.zip",
              "url": "https://bitbucket.org/augustold/odb_arduino/raw/ad4a2882a66a670159f2701e05e36dccabfc9a0f/micronucleus-2.0a5-linux64/micronucleus-2.0a5-linux64.zip",
              "checksum": "SHA-256:3B5A610007FB2C1B97AC9312F31D74332DF7B754933C2E4A10DFD0C654FFF976",
              "size": "25609"
            },
            {
              "host": "i686-mingw32",
              "archiveFileName": "micronucleus-2.0a5-windows.zip",
              "url": "https://bitbucket.org/augustold/odb_arduino/raw/abc1d60b2f87414ff8963f7bd219adada3247ecf/micronucleus-2.0a5-windows/micronucleus-2.0a5-windows.zip",
              "checksum": "SHA-256:A0EE854952FF73E00A38AE121F77BE6E02192015546C439D3EB6E9BF223E24A0",
              "size": "343084"
            }
          ]
        }
      ]
    }
  ]
}
